Blog - Predicting Wide Receiver Fantasy Points w/ Tidymodels
…
wt_recipe = train_data %>%
  recipe(fantasy_points_target ~ .,) %>%
  update_role(c(player_id,recent_team,fantasy_points,fantasy_points_ppr),new_role = 'ID') %>%
  # Generally not recommended to throw out all data, but for brevity, let's remove NAs
  #step_naomit(all_numeric_predictors()) %>%
  step_impute_median(all_numeric_predictors()) %>%
  # Remove zero variance predictors (ie. variables that contribute nothing to prediction)
 step_center(all_numeric_predictors())
#

summary(wt_recipe)

# A tibble: 27 × 4
   variable                       type      role      source  
   <chr>                          <list>    <chr>     <chr>   
 1 wt_receptions                  <chr [2]> predictor original
 2 wt_targets                     <chr [2]> predictor original
 3 wt_receiving_yards             <chr [2]> predictor original
 4 wt_receiving_tds               <chr [2]> predictor original
 5 wt_receiving_fumbles           <chr [2]> predictor original
 6 wt_receiving_fumbles_lost      <chr [2]> predictor original
 7 wt_receiving_air_yards         <chr [2]> predictor original
 8 wt_receiving_yards_after_catch <chr [2]> predictor original
 9 wt_receiving_first_downs       <chr [2]> predictor original
10 wt_receiving_epa               <chr [2]> predictor original
# ℹ 17 more rows
…
