Blog - Predicting NFL Game Outcomes in R (part 1)
…
tidy(imp_models,number = 1)

# A tibble: 54 × 3
   terms            value id                 
   <chr>            <dbl> <chr>              
 1 season            2017 impute_median_BeUC1
 2 week                10 impute_median_BeUC1
 3 total               44 impute_median_BeUC1
 4 away_rest            7 impute_median_BeUC1
 5 home_rest            7 impute_median_BeUC1
 6 away_moneyline     139 impute_median_BeUC1
 7 home_moneyline    -155 impute_median_BeUC1
 8 spread_line          3 impute_median_BeUC1
 9 away_spread_odds  -105 impute_median_BeUC1
10 home_spread_odds  -105 impute_median_BeUC1
# ℹ 44 more rows
…
Extract best model fit.

final_wf = game_pred_wflow %>%
  last_fit(splits)

final_model = extract_workflow(final_wf)

Get variable estimates and penalty terms.

final_model %>%
  extract_fit_engine() %>%
  tidy() %>%
  rename(penalty = lambda)

# A tibble: 3,622 × 5
   term         step estimate penalty dev.ratio
   <chr>       <dbl>    <dbl>   <dbl>     <dbl>
 1 (Intercept)     1    0.253    3.74 -4.05e-14
 2 (Intercept)     2    0.250    3.41  1.76e- 3
 3 (Intercept)     3    0.247    3.11  4.56e- 3
 4 (Intercept)     4    0.242    2.83  7.95e- 3
 5 (Intercept)     5    0.237    2.58  1.15e- 2
 6 (Intercept)     6    0.232    2.35  1.51e- 2
 7 (Intercept)     7    0.227    2.14  1.88e- 2
 8 (Intercept)     8    0.221    1.95  2.26e- 2
 9 (Intercept)     9    0.215    1.78  2.65e- 2
10 (Intercept)    10    0.209    1.62  3.04e- 2
# ℹ 3,612 more rows
…
